<svg width="70" height="70" viewBox="0 0 70 70" fill="none" xmlns="http://www.w3.org/2000/svg">
<path d="M35.0001 35C33.6779 36.3222 31.6557 36.6333 30.0223 35.8556L13.3001 27.9222C6.45568 24.6556 4.90012 15.6333 10.2668 10.2667C15.6335 4.9 24.6557 6.45555 27.9223 13.3L35.8557 30.0222C36.6334 31.6556 36.3223 33.6778 35.0001 35Z" fill="#2E7D32"/>
<path opacity="0.1" d="M35.8553 30.0222L27.922 13.3C26.4442 10.1111 23.6442 8.08885 20.6109 7.38885C19.4442 10.3444 19.522 13.7666 21.3109 16.8L27.222 27.2222L16.7998 21.3111C13.7664 19.6 10.3442 19.5222 7.38867 20.6111C8.16645 23.6444 10.1887 26.4444 13.2998 27.9222L30.022 35.8555C31.7331 36.6333 33.6776 36.3222 34.9998 35C36.322 33.6777 36.6331 31.6555 35.8553 30.0222Z" fill="black"/>
<path opacity="0.1" d="M32.8222 30.4111L27.2222 27.2222L30.4111 32.8222C31.3444 34.4555 33.2111 35.3111 34.9999 34.9999C35.3111 33.1333 34.4555 31.3444 32.8222 30.4111Z" fill="black"/>
<path d="M35 35C35 36.8666 33.8333 38.5 32.0444 39.1222L14.6222 45.3444C7.54444 47.9111 0 42.6222 0 35C0 27.3777 7.54444 22.0888 14.6222 24.6555L32.0444 30.8777C33.8333 31.5 35 33.1333 35 35Z" fill="#388E3C"/>
<path opacity="0.1" d="M30.1776 33.2888L12.3665 38.1888C8.94427 39.1222 6.53316 41.4555 5.21094 44.4111C7.85538 46.0444 11.2776 46.5111 14.622 45.3444L32.0443 39.1222C33.8332 38.4999 34.9998 36.8666 34.9998 34.9999C33.9109 33.4444 32.0443 32.7444 30.1776 33.2888Z" fill="black"/>
<path d="M35.0001 35C36.3223 36.3222 36.6334 38.3445 35.8557 39.9778L27.9223 56.7C24.6557 63.5445 15.6335 65.1 10.2668 59.7333C4.90012 54.3667 6.45568 45.3445 13.3001 42.0778L30.0223 34.1445C31.6557 33.3667 33.6779 33.6778 35.0001 35Z" fill="#43A047"/>
<path opacity="0.1" d="M30.411 37.1778L21.311 53.2C19.5999 56.2333 19.5222 59.6556 20.611 62.6111C23.6444 61.8333 26.4444 59.8111 27.9221 56.7L35.8555 39.9778C36.6333 38.2667 36.3221 36.3222 34.9999 35C33.1333 34.6889 31.3444 35.5444 30.411 37.1778Z" fill="black"/>
<path d="M34.9998 35C33.1332 35 31.4998 36.1667 30.8776 37.9556L24.6554 55.3778C22.0887 62.4556 27.3776 70 34.9998 70C42.6221 70 47.9109 62.4556 45.3443 55.3778L39.1221 37.9556C38.4998 36.1667 36.8665 35 34.9998 35Z" fill="#4CAF50"/>
<path opacity="0.1" d="M33.2889 39.8222L38.1889 57.6333C39.1222 61.0556 41.4556 63.4667 44.4111 64.7889C46.0445 62.1444 46.5111 58.7222 45.3445 55.3778L39.1222 37.9556C38.5 36.1667 36.8667 35 35 35C33.4445 36.0889 32.7445 37.9556 33.2889 39.8222Z" fill="black"/>
<path d="M34.9997 35C33.6775 36.3222 33.3664 38.3445 34.1442 39.9778L42.0775 56.7C45.3442 63.5445 54.3664 65.1 59.733 59.7333C65.0997 54.3667 63.5442 45.3445 56.6997 42.0778L39.9775 34.1445C38.3442 33.3667 36.3219 33.6778 34.9997 35Z" fill="#66BB6A"/>
<path opacity="0.1" d="M37.1777 39.5889L53.2777 48.6889C56.3111 50.4 59.7333 50.4778 62.6888 49.3889C61.9111 46.3556 59.8888 43.5556 56.7777 42.0778L39.9777 34.1445C38.2666 33.3667 36.3222 33.6778 34.9999 35C34.6888 36.8667 35.5444 38.6556 37.1777 39.5889Z" fill="black"/>
<path d="M35 35C35 36.8666 36.1667 38.5 37.9556 39.1222L55.3778 45.3444C62.4556 47.9111 70 42.6222 70 35C70 27.3777 62.4556 22.0888 55.3778 24.6555L37.9556 30.8777C36.1667 31.5 35 33.1333 35 35Z" fill="#81C784"/>
<path opacity="0.1" d="M55.3778 24.6555L37.9556 30.8777C36.1667 31.5 35 33.1333 35 35C36.0889 36.5555 37.9556 37.2555 39.8222 36.7111L57.6333 31.8111C61.0556 30.8777 63.4667 28.5444 64.7889 25.5889C62.0667 23.9555 58.6444 23.4889 55.3778 24.6555Z" fill="black"/>
<path d="M34.9997 35C36.3219 36.3222 38.3442 36.6333 39.9775 35.8556L56.6997 27.9222C63.5442 24.6556 65.0997 15.6333 59.733 10.2667C54.3664 4.9 45.3442 6.45555 42.0775 13.3L34.1442 30.0222C33.3664 31.6556 33.6775 33.6778 34.9997 35Z" fill="#A5D6A7"/>
<path opacity="0.1" d="M42.0775 13.3L34.1442 30.0222C33.3664 31.7333 33.6775 33.6778 34.9997 35C36.8664 35.3111 38.6553 34.4555 39.5886 32.8222L48.6886 16.7222C50.3997 13.6889 50.4775 10.2667 49.3886 7.3111C46.3553 8.08887 43.5553 10.1111 42.0775 13.3Z" fill="black"/>
<path d="M34.9998 35C33.1332 35 31.4998 33.8333 30.8776 32.0444L24.6554 14.6222C22.0887 7.54444 27.3776 0 34.9998 0C42.6221 0 47.9109 7.54444 45.3443 14.6222L39.1221 32.0444C38.4998 33.8333 36.8665 35 34.9998 35Z" fill="#C8E6C9"/>
</svg>
