<svg width="7" height="20" viewBox="0 0 7 20" fill="none" xmlns="http://www.w3.org/2000/svg">
<path d="M6.39443 1.44721C6.64142 0.953235 6.44119 0.352562 5.94721 0.105573C5.45324 -0.141416 4.85256 0.0588079 4.60557 0.552786L6.39443 1.44721ZM1 10L0.105573 9.55279C-0.0351909 9.83431 -0.0351909 10.1657 0.105573 10.4472L1 10ZM4.60557 19.4472C4.85256 19.9412 5.45324 20.1414 5.94721 19.8944C6.44119 19.6474 6.64142 19.0468 6.39443 18.5528L4.60557 19.4472ZM4.60557 0.552786L0.105573 9.55279L1.89443 10.4472L6.39443 1.44721L4.60557 0.552786ZM0.105573 10.4472L4.60557 19.4472L6.39443 18.5528L1.89443 9.55279L0.105573 10.4472Z" fill="black"/>
</svg>
