<svg width="48" height="48" viewBox="0 0 48 48" fill="none" xmlns="http://www.w3.org/2000/svg">
<g clip-path="url(#clip0)">
<path d="M24 48C37.2548 48 48 37.2548 48 24C48 10.7452 37.2548 0 24 0C10.7452 0 0 10.7452 0 24C0 37.2548 10.7452 48 24 48Z" fill="#E0F7FA"/>
<path d="M36.8 11.7336L33.9734 11.8936L31.36 9.28027L30.9334 13.2269H21.44L17.4934 9.28027L17.0667 13.3336L13.4934 16.9069L19.7334 18.1336L12.1067 38.1336L21.8667 47.8936C22.56 47.9469 23.2534 48.0003 24 48.0003C37.28 48.0003 48 37.2803 48 24.0003C48 23.6269 48 23.2536 47.9467 22.8803L36.8 11.7336Z" fill="#B2EBF2"/>
<path d="M12.8001 38.3996H36.2667V17.5996H11.7334V37.3329C11.7334 37.9196 12.2134 38.3996 12.8001 38.3996Z" fill="#00838F"/>
<path d="M35.7333 11.2002H12.2666C11.68 11.2002 11.2 11.6802 11.2 12.2669V33.6002L16.5333 38.9335H35.7333C36.3199 38.9335 36.7999 38.4535 36.7999 37.8669V12.2669C36.7999 11.6802 36.3199 11.2002 35.7333 11.2002Z" fill="#00ACC1"/>
<path d="M36.7999 17.6002H11.2V12.2669C11.2 11.6802 11.68 11.2002 12.2666 11.2002H35.7333C36.3199 11.2002 36.7999 11.6802 36.7999 12.2669V17.6002Z" fill="#546E7A"/>
<path d="M36.7999 17.0664H11.2V17.5997H36.7999V17.0664Z" fill="#455A64"/>
<path d="M36.7999 12.8002H11.2V12.2669C11.2 11.6802 11.68 11.2002 12.2666 11.2002H35.7333C36.3199 11.2002 36.7999 11.6802 36.7999 12.2669V12.8002Z" fill="#607D8B"/>
<path d="M21.2267 38.933L16.3201 34.0264L16.5334 38.933H21.2267Z" fill="#0097A7"/>
<path d="M24.2135 27.0398C24.6401 27.5198 24.8535 28.0531 24.8535 28.7465C24.8535 29.2798 24.6935 29.7598 24.4268 30.1865C24.1601 30.6131 23.7335 30.9865 23.2001 31.2531C22.6668 31.5198 21.9735 31.6265 21.1201 31.6265C20.4801 31.6265 19.8935 31.5198 19.2535 31.3598C18.6668 31.1998 18.1335 30.9331 17.7068 30.6665L18.5068 29.0665C18.8268 29.3331 19.2535 29.5465 19.6801 29.6531C20.1068 29.7598 20.5868 29.8665 21.0668 29.8665C21.6001 29.8665 21.9735 29.7598 22.2935 29.5465C22.6135 29.3331 22.7201 29.0665 22.7201 28.6931C22.7201 27.9465 22.1868 27.5731 21.0668 27.5731H20.1068V26.1865L21.9735 24.1065H18.1335V22.4531H24.4268V23.7865L22.4001 26.1331C23.1468 26.2931 23.7868 26.5598 24.2135 27.0398Z" fill="#80DEEA"/>
<path d="M29.2266 22.5068V31.4668H27.1466V24.1602H25.3333V22.5068H29.2266Z" fill="#80DEEA"/>
<path d="M16.5333 34.6663C16.5333 34.0796 16.0533 33.5996 15.4666 33.5996H11.2L16.5333 38.9329V34.6663Z" fill="#4DD0E1"/>
<path d="M30.9332 13.3331C30.6132 13.3331 30.3999 13.1197 30.3999 12.7997V9.59974C30.3999 9.27974 30.6132 9.06641 30.9332 9.06641C31.2532 9.06641 31.4666 9.27974 31.4666 9.59974V12.7997C31.4666 13.1197 31.2532 13.3331 30.9332 13.3331Z" fill="#4DD0E1"/>
<path d="M17.0668 13.3331C16.7468 13.3331 16.5334 13.1197 16.5334 12.7997V9.59974C16.5334 9.27974 16.7468 9.06641 17.0668 9.06641C17.3868 9.06641 17.6001 9.27974 17.6001 9.59974V12.7997C17.6001 13.1197 17.3868 13.3331 17.0668 13.3331Z" fill="#4DD0E1"/>
</g>
<defs>
<clipPath id="clip0">
<rect width="48" height="48" fill="white"/>
</clipPath>
</defs>
</svg>
