<svg width="90" height="90" viewBox="0 0 90 90" fill="none" xmlns="http://www.w3.org/2000/svg">
<path d="M45 90C69.8528 90 90 69.8528 90 45C90 20.1472 69.8528 0 45 0C20.1472 0 0 20.1472 0 45C0 69.8528 20.1472 90 45 90Z" fill="#E3F2FD"/>
<path d="M64 18.3L40.6 28L26 69L47 90C70.9 89 90 69.2001 90 45C90 44.8 90 44.6 90 44.3L64 18.3Z" fill="#BBDEFB"/>
<path d="M61 69H26C25.4 69 25 68.6 25 68V18C25 17.4 25.4 17 26 17H61C63.2 17 65 18.8 65 21V65C65 67.2 63.2 69 61 69Z" fill="#1E88E5"/>
<path d="M33 17H26C25.4 17 25 17.4 25 18V68C25 68.6 25.4 69 26 69H33V17Z" fill="#546E7A"/>
<path d="M33 17H32V69H33V17Z" fill="#455A64"/>
<path d="M41 73L37 71L33 73V69H41V73Z" fill="#E53935"/>
<path d="M33 69L35.7 71.7L37 71L41 73V69H33Z" fill="#D32F2F"/>
<path d="M26 17C25.4 17 25 17.4 25 18V68C25 68.6 25.4 69 26 69V17Z" fill="#607D8B"/>
</svg>
